0.0003253938324456288
0.000311857136305289
0.0003243979296138007
0.0003598153083088258
0.00044042236259944986
0.0005884372753949122
0.0008904506045990937
0.0014621411852121205
0.0024348725642790283
0.004112867626238889
0.006839413849593603
0.011084459431940334
0.017379622635458385
0.026920913474757713
0.041037791563946394
0.06071108762029196
0.08658793602889117
0.11389567510997095
0.13168502449835054
0.13315446496288663
0.11868072990745063
0.09194045480568405
0.061649022000002135
0.037517994205058136
0.022287370040490577
0.012820081207561443
0.006951201517126061
0.0035135399225402412
0.0016899207696134799
0.0008222507877494124
0.0004311617234287322
0.0002698308762584152
0.00020621727487362708
0.00018214901931220626
0.00017977864043732382
0.00016810699747880448
0.00014314530385013213
